Twitter Data and Network Analysis with R
…
## Searching for tweets...

## Finished collecting tweets!

# and also by account handle
ben <- search_tweets("BenInquiring", n = 50)

## Searching for tweets...
## Finished collecting tweets!

ben

## # A tibble: 50 x 88
##    user_id  status_id created_at          screen_name text          source
##  * <chr>    <chr>     <dttm>              <chr>       <chr>         <chr> 
##  1 7155988 10341955 2018-08-27 21:46:38 BenInquiri "\"The preva Twitt
##  2 7155988 10341930 2018-08-27 21:37:02 BenInquiri "Populatio Twitt
##  3 7155988 10341895 2018-08-27 21:22:50 BenInquiri "Shout out t Twitt
##  4 7155988 10341894 2018-08-27 21:22:35 BenInquiri @MattDoyle76 Twitt
##  5 7155988 10340682 2018-08-27 13:20:56 BenInquiri UNC students Twitt
##  6 7155988 10340526 2018-08-27 12:19:02 BenInquiri @SeanSteffen Twitt
##  7 7155988 10340509 2018-08-27 12:12:22 BenInquiri https://t.co Twitt
##  8 7155988 10334498 2018-08-25 20:23:29 BenInquiri "Deplatform Twitt
##  9 7155988 10333826 2018-08-25 15:56:43 BenInquiri As tidycensu Twitt
## 10 7155988 10333278 2018-08-25 12:18:53 BenInquiri "I feel like Twitt
## # ... with 40 more rows, and 82 more variables: display_text_width <dbl>,
## #   reply_to_status_id <chr>, reply_to_user_id <chr>,
## #   reply_to_screen_name <chr>, is_quote <lgl>, is_retweet <lgl>,
## #   favorite_count <int>, retweet_count <int>, hashtags <list>,
## #   symbols <list>, urls_url <list>, urls_t.co <list>,
## #   urls_expanded_url <list>, media_url <list>, media_t.co <list>,
## #   media_expanded_url <list>, media_type <list>, ext_media_url <list>,
## #   ext_media_t.co <list>, ext_media_expanded_url <list>,
## #   ext_media_type <chr>, mentions_user_id <list>,
…
## [1] "Benjamin Bellman"

ben_profile$description

## [1] "Sociology PhD student @BrownUniversity. Spatial demography, urban studies, soccer nerd. Jr. contributor for @AnalysisEvolved. Go Pids."

ben_profile$location

## [1] "Providence, RI"

When working with APIs, its important to remember rate limiting. API queries cost server time and money, so rate limiting API keys helps regulate traffic. The Twitter API is actually a collection of smaller APIs, all of which have different limits. We can check our keys status on all limits with the rate_limit() function. The reset column is time remaining in minutes.

rate_limit()

## # A tibble: 145 x 7
##    query    limit remaining reset  reset_at            timestamp          
##    <chr>    <int>     <int> <time> <dttm>              <dttm>             
##  1 lists/l    15        15 15.00 2018-08-28 00:03:45 2018-08-27 23:48:45
##  2 lists/m    75        75 15.00 2018-08-28 00:03:45 2018-08-27 23:48:45
##  3 lists/s    15        15 15.00 2018-08-28 00:03:45 2018-08-27 23:48:45
##  4 lists/m   900       900 15.00 2018-08-28 00:03:45 2018-08-27 23:48:45
##  5 lists/s    15        15 15.00 2018-08-28 00:03:45 2018-08-27 23:48:45
##  6 lists/s    75        75 15.00 2018-08-28 00:03:45 2018-08-27 23:48:45
##  7 lists/o    15        15 15.00 2018-08-28 00:03:45 2018-08-27 23:48:45
##  8 lists/s   180       180 15.00 2018-08-28 00:03:45 2018-08-27 23:48:45
##  9 lists/m    15        15 15.00 2018-08-28 00:03:45 2018-08-27 23:48:45
## 10 lists/s   900       900 15.00 2018-08-28 00:03:45 2018-08-27 23:48:45
## # ... with 135 more rows, and 1 more variable: app <chr>
…
