…
```r
salaries <- read_csv(here("data","white-house-salaries.csv")) %>% 
  mutate(year = factor(year))     # need year to not be numeric
melted <- melt(salaries) %>% as_tibble()

select(melted, variable, value)
```

```
# A tibble: 7,108 x 2
   variable  value
   <fct>     <dbl>
 1 salary    40000
 2 salary    65000
 3 salary    36000
 4 salary    92000
 5 salary    42800
 6 salary   130500
 7 salary    57000
 8 salary    54768
 9 salary    55000
10 salary    50000
# ... with 7,098 more rows
```
…
```r
employees <- dcast(melted, employee_name ~ variable + year) %>% 
  as_tibble()

employees
```

```
# A tibble: 3,321 x 17
   employee_name        salary_2001 salary_2003 salary_2004 salary_2005
   <chr>                      <dbl>       <dbl>       <dbl>       <dbl>
 1 abbot, anita k             55500          NA          NA          NA
 2 abdullah, hasan a             NA          NA          NA          NA
 3 aberger, marie e              NA          NA          NA          NA
 4 abizaid, christine s          NA          NA          NA          NA
 5 abney, allen k                NA       45000       45000       55000
 6 abraham, sabey m              NA          NA          NA          NA
 7 abraham, yohannes a           NA          NA          NA          NA
 8 abrams, adam w                NA          NA          NA          NA
 9 abramson, jerry e             NA          NA          NA          NA
10 abrevaya, sandra              NA          NA          NA          NA
# ... with 3,311 more rows, and 12 more variables: salary_2006 <dbl>,
#   salary_2007 <dbl>, salary_2008 <dbl>, salary_2009 <dbl>,
#   salary_2010 <dbl>, salary_2011 <dbl>, salary_2012 <dbl>,
#   salary_2013 <dbl>, salary_2014 <dbl>, salary_2015 <dbl>,
#   salary_2016 <dbl>, salary_2017 <dbl>
```
…
separate() function
========================================================
class: small-code

```r
employees <- employees %>% 
  separate(employee_name, into = c("last_name", "first_mi"), sep = ", ", extra = "merge")

employees 
```

```
# A tibble: 3,321 x 18
   last_name first_mi    salary_2001 salary_2003 salary_2004 salary_2005
   <chr>     <chr>             <dbl>       <dbl>       <dbl>       <dbl>
 1 abbot     anita k           55500          NA          NA          NA
 2 abdullah  hasan a              NA          NA          NA          NA
 3 aberger   marie e              NA          NA          NA          NA
 4 abizaid   christine s          NA          NA          NA          NA
 5 abney     allen k              NA       45000       45000       55000
 6 abraham   sabey m              NA          NA          NA          NA
 7 abraham   yohannes a           NA          NA          NA          NA
 8 abrams    adam w               NA          NA          NA          NA
 9 abramson  jerry e              NA          NA          NA          NA
10 abrevaya  sandra               NA          NA          NA          NA
# ... with 3,311 more rows, and 12 more variables: salary_2006 <dbl>,
#   salary_2007 <dbl>, salary_2008 <dbl>, salary_2009 <dbl>,
#   salary_2010 <dbl>, salary_2011 <dbl>, salary_2012 <dbl>,
#   salary_2013 <dbl>, salary_2014 <dbl>, salary_2015 <dbl>,
#   salary_2016 <dbl>, salary_2017 <dbl>
```

extract() function
========================================================
- Extracts the patterns matched within the parenteses
class: small-code

```r
employees <- employees %>% 
  extract(first_mi, into = c("first_name", "mi"), regex = "^([a-z]*) ([a-z])$", remove = F)

employees 
```

```
# A tibble: 3,321 x 20
   last_name first_mi first_name mi    salary_2001 salary_2003 salary_2004
   <chr>     <chr>    <chr>      <chr>       <dbl>       <dbl>       <dbl>
 1 abbot     anita k  anita      k           55500          NA          NA
 2 abdullah  hasan a  hasan      a              NA          NA          NA
 3 aberger   marie e  marie      e              NA          NA          NA
 4 abizaid   christi… christine  s              NA          NA          NA
 5 abney     allen k  allen      k              NA       45000       45000
 6 abraham   sabey m  sabey      m              NA          NA          NA
 7 abraham   yohanne… yohannes   a              NA          NA          NA
 8 abrams    adam w   adam       w              NA          NA          NA
 9 abramson  jerry e  jerry      e              NA          NA          NA
10 abrevaya  sandra   <NA>       <NA>           NA          NA          NA
# ... with 3,311 more rows, and 13 more variables: salary_2005 <dbl>,
#   salary_2006 <dbl>, salary_2007 <dbl>, salary_2008 <dbl>,
#   salary_2009 <dbl>, salary_2010 <dbl>, salary_2011 <dbl>,
#   salary_2012 <dbl>, salary_2013 <dbl>, salary_2014 <dbl>,
#   salary_2015 <dbl>, salary_2016 <dbl>, salary_2017 <dbl>
```
…
