…
Using readr
========================================================
class: small-code
- Automatically prints class of columns

```r
salaries <- read_csv("~/Google Drive/Computer Backup/R Workshop/Data/white-house-salaries.csv")
salaries
```

```
# A tibble: 7,108 x 9
          employee_name salary
                  <chr>  <dbl>
 1  abraham, yohannes a  40000
 2       abrams, adam w  65000
 3         adams, ian h  36000
 4       agnew, david p  92000
 5    ahrens, rebecca a  42800
 6   aldy, jr, joseph e 130500
 7 alvarado, lissette a  57000
 8  amorsingh, lucius l  54768
 9   anderson, amanda d  55000
10  anderson, charles d  50000
# ... with 7,098 more rows, and 7 more variables: position <chr>,
#   year <int>, status <chr>, party <chr>, president <chr>, term <chr>,
#   gender <chr>
```
…
```
[1] "employee_name" "salary"        "position"      "year"         
[5] "status"        "party"         "president"     "term"         
[9] "gender"       
```

```r
select(salaries, president, party, year)
```

```
# A tibble: 7,108 x 3
   president    party  year
       <chr>    <chr> <int>
 1     obama democrat  2009
 2     obama democrat  2009
 3     obama democrat  2009
 4     obama democrat  2009
 5     obama democrat  2009
 6     obama democrat  2009
 7     obama democrat  2009
 8     obama democrat  2009
 9     obama democrat  2009
10     obama democrat  2009
# ... with 7,098 more rows
```

select() function
========================================================
class: small-code
- There are other functions that work inside of ```select()```
- See: ```starts_with()``` or ```contains()``` or ```matches()```


```r
select(salaries, starts_with("s"))
```

```
# A tibble: 7,108 x 2
   salary   status
    <dbl>    <chr>
 1  40000 employee
 2  65000 employee
 3  36000 employee
 4  92000 employee
 5  42800 employee
 6 130500 employee
 7  57000 employee
 8  54768 employee
 9  55000 employee
10  50000 employee
# ... with 7,098 more rows
```

rename() function
========================================================
class: small-code
- ```rename()``` works like ```select```, but changes variable names
    - keeps variables that aren't specified
    - new column name goes on left hand side


```r
rename(salaries, name = employee_name)
```

```
# A tibble: 7,108 x 9
                   name salary
                  <chr>  <dbl>
 1  abraham, yohannes a  40000
 2       abrams, adam w  65000
 3         adams, ian h  36000
 4       agnew, david p  92000
 5    ahrens, rebecca a  42800
 6   aldy, jr, joseph e 130500
 7 alvarado, lissette a  57000
 8  amorsingh, lucius l  54768
 9   anderson, amanda d  55000
10  anderson, charles d  50000
# ... with 7,098 more rows, and 7 more variables: position <chr>,
#   year <int>, status <chr>, party <chr>, president <chr>, term <chr>,
#   gender <chr>
```
…
arrange() function
========================================================
class: small-code
- Lets you reorder data rows according to variables
     - Returns tibble, where ```base::order()``` returns row numbers
     - use ```select()``` to reorder columns

```r
arrange(salaries, employee_name, year)
```

```
# A tibble: 7,108 x 9
          employee_name salary
                  <chr>  <dbl>
 1       abbot, anita k  55500
 2    abdullah, hasan a 105960
 3     aberger, marie e  42000
 4     aberger, marie e  42000
 5 abizaid, christine s 156552
 6       abney, allen k  45000
 7       abney, allen k  45000
 8       abney, allen k  55000
 9     abraham, sabey m  55000
10  abraham, yohannes a  40000
# ... with 7,098 more rows, and 7 more variables: position <chr>,
#   year <int>, status <chr>, party <chr>, president <chr>, term <chr>,
#   gender <chr>
```

arrange() function
========================================================
class: small-code

```r
arrange(salaries, -salary)
```

```
# A tibble: 7,108 x 9
         employee_name salary
                 <chr>  <dbl>
 1     wheeler, seth f 225000
 2   marcozzi, david e 192934
 3       house, mark s 187100
 4     hash, michael m 179700
 5     love, timothy p 179700
 6   bannon, stephen k 179700
 7   bossert, thomas p 179700
 8  bremberg, andrew p 179700
 9 conway, kellyanne e 179700
10   dearborn, ricky a 179700
# ... with 7,098 more rows, and 7 more variables: position <chr>,
#   year <int>, status <chr>, party <chr>, president <chr>, term <chr>,
#   gender <chr>
```
…
transmute() function
========================================================
class: small-code
- ```transmute()``` works the same way, but only returns new columns

```r
transmute(salaries, in_1000s = salary / 1000)
```

```
# A tibble: 7,108 x 1
   in_1000s
      <dbl>
 1   40.000
 2   65.000
 3   36.000
 4   92.000
 5   42.800
 6  130.500
 7   57.000
 8   54.768
 9   55.000
10   50.000
# ... with 7,098 more rows
```
…
```r
salaries <- salaries %>%
  rename(name = employee_name) %>%
  arrange(name) %>%
  group_by(name) %>%
  mutate(tenure = rank(year))

select(salaries, name, tenure, salary)
```

```
# A tibble: 7,108 x 3
# Groups:   name [3,321]
                   name tenure salary
                  <chr>  <dbl>  <dbl>
 1       abbot, anita k      1  55500
 2    abdullah, hasan a      1 105960
 3     aberger, marie e      1  42000
 4     aberger, marie e      2  42000
 5 abizaid, christine s      1 156552
 6       abney, allen k      1  45000
 7       abney, allen k      2  45000
 8       abney, allen k      3  55000
 9     abraham, sabey m      1  55000
10  abraham, yohannes a      1  40000
# ... with 7,098 more rows
```
…
