…
```
[1] "employee_name" "salary"        "position"      "year"         
[5] "status"        "party"         "president"     "term"         
[9] "gender"       
```

```r
select(salaries, president, party, year)
```

```
# A tibble: 7,108 x 3
   president party     year
   <chr>     <chr>    <int>
 1 obama     democrat  2009
 2 obama     democrat  2009
 3 obama     democrat  2009
 4 obama     democrat  2009
 5 obama     democrat  2009
 6 obama     democrat  2009
 7 obama     democrat  2009
 8 obama     democrat  2009
 9 obama     democrat  2009
10 obama     democrat  2009
# ... with 7,098 more rows
```

select() function
========================================================
class: small-code
- There are other functions that work inside of ```select()```
- See: ```starts_with()``` or ```contains()``` or ```matches()```


```r
select(salaries, starts_with("s"))
```

```
# A tibble: 7,108 x 2
   salary status  
    <dbl> <chr>   
 1  40000 employee
 2  65000 employee
 3  36000 employee
 4  92000 employee
 5  42800 employee
 6 130500 employee
 7  57000 employee
 8  54768 employee
 9  55000 employee
10  50000 employee
# ... with 7,098 more rows
```

rename() function
========================================================

class: small-code
- ```rename()``` returns the full data, but changes variable names


```r
rename(salaries, name = employee_name)
```

```
# A tibble: 7,108 x 9
   name    salary position        year status party president term  gender
   <chr>    <dbl> <chr>          <int> <chr>  <chr> <chr>     <chr> <chr> 
 1 abraha…  40000 legislative a…  2009 emplo… demo… obama     first male  
 2 abrams…  65000 western regio…  2009 emplo… demo… obama     first male  
 3 adams,…  36000 executive ass…  2009 emplo… demo… obama     first male  
 4 agnew,…  92000 deputy direct…  2009 emplo… demo… obama     first male  
 5 ahrens…  42800 operator        2009 emplo… demo… obama     first female
 6 aldy, … 130500 special assis…  2009 emplo… demo… obama     first male  
 7 alvara…  57000 domestic dire…  2009 emplo… demo… obama     first female
 8 amorsi…  54768 special assis…  2009 emplo… demo… obama     first male  
 9 anders…  55000 executive ass…  2009 emplo… demo… obama     first female
10 anders…  50000 policy assist…  2009 emplo… demo… obama     first male  
# ... with 7,098 more rows
```
…
arrange() function
========================================================
class: small-code
- Lets you reorder data rows according to variables
     - Returns tibble, where ```base::order()``` returns row numbers
     - use ```select()``` to reorder columns

```r
arrange(salaries, employee_name, year)
```

```
# A tibble: 7,108 x 9
   employee_name salary position  year status party president term  gender
   <chr>          <dbl> <chr>    <int> <chr>  <chr> <chr>     <chr> <chr> 
 1 abbot, anita…  55500 ethics …  2001 emplo… repu… bush      first female
 2 abdullah, ha… 105960 policy …  2015 detai… demo… obama     seco… male  
 3 aberger, mar…  42000 press a…  2012 emplo… demo… obama     first female
 4 aberger, mar…  42000 press a…  2013 emplo… demo… obama     first female
 5 abizaid, chr… 156552 advisor…  2016 detai… demo… obama     seco… female
 6 abney, allen…  45000 spokesm…  2003 emplo… repu… bush      first male  
 7 abney, allen…  45000 spokesm…  2004 emplo… repu… bush      first male  
 8 abney, allen…  55000 spokesm…  2005 emplo… repu… bush      seco… male  
 9 abraham, sab…  55000 energy …  2015 emplo… demo… obama     seco… male  
10 abraham, yoh…  40000 legisla…  2009 emplo… demo… obama     first male  
# ... with 7,098 more rows
```

arrange() function
========================================================
class: small-code
- The `desc()` function sorts in descending order

```r
arrange(salaries, desc(salary))
```

```
# A tibble: 7,108 x 9
   employee_name salary position  year status party president term  gender
   <chr>          <dbl> <chr>    <int> <chr>  <chr> <chr>     <chr> <chr> 
 1 wheeler, set… 225000 senior …  2013 detai… demo… obama     first male  
 2 marcozzi, da… 192934 directo…  2009 detai… demo… obama     first male  
 3 house, mark s 187100 senior …  2017 detai… repu… trump     first male  
 4 hash, michae… 179700 deputy …  2010 detai… demo… obama     first male  
 5 love, timoth… 179700 policy …  2010 detai… demo… obama     first male  
 6 bannon, step… 179700 assista…  2017 emplo… repu… trump     first male  
 7 bossert, tho… 179700 assista…  2017 emplo… repu… trump     first male  
 8 bremberg, an… 179700 assista…  2017 emplo… repu… trump     first male  
 9 conway, kell… 179700 assista…  2017 emplo… repu… trump     first female
10 dearborn, ri… 179700 assista…  2017 emplo… repu… trump     first male  
# ... with 7,098 more rows
```
…
transmute() function
========================================================
class: small-code
- ```transmute()``` works the same way, but only returns new columns
- Useful if you only need the result

```r
transmute(salaries, in_1000s = salary / 1000)
```

```
# A tibble: 7,108 x 1
   in_1000s
      <dbl>
 1     40  
 2     65  
 3     36  
 4     92  
 5     42.8
 6    130. 
 7     57  
 8     54.8
 9     55  
10     50  
# ... with 7,098 more rows
```
…
```r
salaries <- salaries %>%
  rename(name = employee_name) %>%
  arrange(name) %>%
  group_by(name) %>%
  mutate(tenure = rank(year))

select(salaries, name, tenure, salary)
```

```
# A tibble: 7,108 x 3
# Groups:   name [3,321]
   name                 tenure salary
   <chr>                 <dbl>  <dbl>
 1 abbot, anita k            1  55500
 2 abdullah, hasan a         1 105960
 3 aberger, marie e          1  42000
 4 aberger, marie e          2  42000
 5 abizaid, christine s      1 156552
 6 abney, allen k            1  45000
 7 abney, allen k            2  45000
 8 abney, allen k            3  55000
 9 abraham, sabey m          1  55000
10 abraham, yohannes a       1  40000
# ... with 7,098 more rows
```
…
